^C:\USERS\MATHIEU\DOCUMENTS\ÉCOLE\AUDIO\PROJET\VOCODER\AUDIOVISU\SOURCE\MAIN.CPP
C:\USERS\MATHIEU\DOCUMENTS\éCOLE\AUDIO\PROJET\VOCODER\AUDIOVISU\INTERMEDIATE\DEBUG\VC120.PDB
C:\USERS\MATHIEU\DOCUMENTS\éCOLE\AUDIO\PROJET\VOCODER\AUDIOVISU\INTERMEDIATE\DEBUG\VC120.IDB
C:\USERS\MATHIEU\DOCUMENTS\ÉCOLE\AUDIO\PROJET\VOCODER\AUDIOVISU\INTERMEDIATE\DEBUG\MAIN.OBJ
